Lab: List Processing
…
Warning: There was 1 warning in `mutate()`.
ℹ In argument: `airtime = hm(airtime)`.
Caused by warning in `.parse_hms()`:
! Some strings failed to parse

3.2 Air Time

Investigate the air time of the episodes relative to the air date, series, and season. It may help to know that the watershed period in the UK is 9:00pm - 5:30am. Content that is unsuitable for minors may only be shown during this window. What conclusions do you draw about the target audience for each show?

How can you explain any shows in the Dr. Who universe which do not have airtimes provided?

whoverse %>% filter(hour(airtime) >= 21 | hour(airtime) < 5)

# A tibble: 50 × 18
        id url                    name  season number type  airdate    airtime  
     <int> <chr>                  <chr>  <int>  <int> <chr> <date>     <Period> 
 1  204464 https://www.tvmaze.co… Befo…      9      4 regu… 2015-10-10 21H 0M 0S
 2 2797539 https://www.tvmaze.co… Spac…      1      1 regu… 2024-05-10 0S       
 3 2797540 https://www.tvmaze.co… The …      1      2 regu… 2024-05-10 0S       
 4 2810889 https://www.tvmaze.co… Boom       1      3 regu… 2024-05-17 0S       
 5 2810890 https://www.tvmaze.co… 73 Y…      1      4 regu… 2024-05-24 0S       
 6 2810891 https://www.tvmaze.co… Dot …      1      5 regu… 2024-05-31 0S       
 7 2810892 https://www.tvmaze.co… Rogue      1      6 regu… 2024-06-07 0S       
 8 2810893 https://www.tvmaze.co… The …      1      7 regu… 2024-06-14 0S       
 9 2810894 https://www.tvmaze.co… Empi…      1      8 regu… 2024-06-21 0S       
10   58045 https://www.tvmaze.co… Ever…      1      1 regu… 2006-10-22 21H 0M 0S
# ℹ 40 more rows
# ℹ 10 more variables: airstamp <dttm>, runtime <int>, rating_average <dbl>,
#   image_medium <chr>, image_original <chr>, summary <chr>,
#   links_self_href <chr>, links_show_href <chr>, links_show_name <chr>,
#   showid <dbl>
…
